Resampled Data Frames • strapgod
…
vignette("virtual-bootstraps", "strapgod")

vignette("dplyr-support", "strapgod")

Example

Create resampled data frames with bootstrapify() or samplify(). Notice how we grouped by the virtual column, .bootstrap and there are still only 150 rows even though we bootstrapped this dataset 10 times.

library(strapgod)
library(dplyr)
set.seed(123)

bootstrapify(iris, 10)
#> # A tibble: 150 x 5
#> # Groups:   .bootstrap [10]
#>    Sepal.Length Sepal.Width Petal.Length Petal.Width Species
#>           <dbl>       <dbl>        <dbl>       <dbl> <fct>  
#>  1          5.1         3.5          1.4         0.2 setosa 
#>  2          4.9         3            1.4         0.2 setosa 
#>  3          4.7         3.2          1.3         0.2 setosa 
#>  4          4.6         3.1          1.5         0.2 setosa 
#>  5          5           3.6          1.4         0.2 setosa 
#>  6          5.4         3.9          1.7         0.4 setosa 
#>  7          4.6         3.4          1.4         0.3 setosa 
#>  8          5           3.4          1.5         0.2 setosa 
#>  9          4.4         2.9          1.4         0.2 setosa 
#> 10          4.9         3.1          1.5         0.1 setosa 
#> # … with 140 more rows
…
The original data can be grouped as well, and the bootstraps will be created for each group.

iris %>%
  group_by(Species) %>%
  bootstrapify(10) %>%
  summarise(per_strap_per_species_mean = mean(Petal.Width))
#> # A tibble: 30 x 3
#> # Groups:   Species [3]
#>    Species .bootstrap per_strap_per_species_mean
#>    <fct>        <int>                      <dbl>
#>  1 setosa           1                      0.25 
#>  2 setosa           2                      0.246
#>  3 setosa           3                      0.24 
#>  4 setosa           4                      0.238
#>  5 setosa           5                      0.252
#>  6 setosa           6                      0.274
#>  7 setosa           7                      0.238
#>  8 setosa           8                      0.258
#>  9 setosa           9                      0.252
#> 10 setosa          10                      0.256
#> # … with 20 more rows
…
