Create a bootstrapped tibble — bootstrapify • strapgod
…
bootstrapify(iris, 5)
#> # A tibble: 150 x 5
#> # Groups:   .bootstrap [5]
#>    Sepal.Length Sepal.Width Petal.Length Petal.Width Species
#>           <dbl>       <dbl>        <dbl>       <dbl> <fct>  
#>  1          5.1         3.5          1.4         0.2 setosa 
#>  2          4.9         3            1.4         0.2 setosa 
#>  3          4.7         3.2          1.3         0.2 setosa 
#>  4          4.6         3.1          1.5         0.2 setosa 
#>  5          5           3.6          1.4         0.2 setosa 
#>  6          5.4         3.9          1.7         0.4 setosa 
#>  7          4.6         3.4          1.4         0.3 setosa 
#>  8          5           3.4          1.5         0.2 setosa 
#>  9          4.4         2.9          1.4         0.2 setosa 
#> 10          4.9         3.1          1.5         0.1 setosa 
#> # … with 140 more rows
…
# Alter the name of the group with `key`
# Materialize them with collect()
straps <- bootstrapify(iris, 5, key = ".straps")
collect(straps)
#> # A tibble: 750 x 6
#> # Groups:   .straps [5]
#>    .straps Sepal.Length Sepal.Width Petal.Length Petal.Width Species   
#>      <int>        <dbl>       <dbl>        <dbl>       <dbl> <fct>     
#>  1       1          5.1         2.5          3           1.1 versicolor
#>  2       1          4.8         3.4          1.9         0.2 setosa    
#>  3       1          6.5         3            5.8         2.2 virginica 
#>  4       1          4.8         3.4          1.6         0.2 setosa    
#>  5       1          5.8         2.8          5.1         2.4 virginica 
#>  6       1          5.6         2.5          3.9         1.1 versicolor
#>  7       1          6.1         2.8          4           1.3 versicolor
#>  8       1          6.6         3            4.4         1.4 versicolor
#>  9       1          6.2         3.4          5.4         2.3 virginica 
#> 10       1          5.5         2.4          3.7         1   versicolor
#> # … with 740 more rows
…
