Created a resampled tibble — samplify • strapgod
…
dplyr::group_split()

    See also

    collect.resampled_df()

Other virtual samplers: bootstrapify

    Examples

library(dplyr)
library(broom)

samplify(iris, times = 3, size = 20)
#> # A tibble: 150 x 5
#> # Groups:   .sample [3]
#>    Sepal.Length Sepal.Width Petal.Length Petal.Width Species
#>           <dbl>       <dbl>        <dbl>       <dbl> <fct>  
#>  1          5.1         3.5          1.4         0.2 setosa 
#>  2          4.9         3            1.4         0.2 setosa 
#>  3          4.7         3.2          1.3         0.2 setosa 
#>  4          4.6         3.1          1.5         0.2 setosa 
#>  5          5           3.6          1.4         0.2 setosa 
#>  6          5.4         3.9          1.7         0.4 setosa 
#>  7          4.6         3.4          1.4         0.3 setosa 
#>  8          5           3.4          1.5         0.2 setosa 
#>  9          4.4         2.9          1.4         0.2 setosa 
#> 10          4.9         3.1          1.5         0.1 setosa 
#> # … with 140 more rows
…
iris_group_sizes_of_50_and_5 %>%
  samplify(times = 2, size = 10)
#> Error: `size` (10) must be less than or equal to the size of the data / current group (5), set `replace = TRUE` to use sampling with replacement.

# Instead, pass a vector of sizes to `samplify()` if this
# structure is absolutely required for your use case.

# size of 10 for the first group
# size of 5 for the second group
# total number of rows is 10 * 2 + 5 * 2 = 30
iris_group_sizes_of_50_and_5 %>%
  samplify(times = 2, size = c(10, 5)) %>%
  collect()
#> # A tibble: 30 x 6
#> # Groups:   Species, .sample [4]
#>    .sample Sepal.Length Sepal.Width Petal.Length Petal.Width Species
#>      <int>        <dbl>       <dbl>        <dbl>       <dbl> <fct>  
#>  1       1          5.7         3.8          1.7         0.3 setosa 
#>  2       1          4.6         3.4          1.4         0.3 setosa 
#>  3       1          4.9         3.1          1.5         0.1 setosa 
#>  4       1          5           3.3          1.4         0.2 setosa 
#>  5       1          4.7         3.2          1.6         0.2 setosa 
#>  6       1          4.6         3.6          1           0.2 setosa 
#>  7       1          5.5         4.2          1.4         0.2 setosa 
#>  8       1          5           3.5          1.3         0.3 setosa 
#>  9       1          4.4         3            1.3         0.2 setosa 
#> 10       1          5           3            1.6         0.2 setosa 
#> # … with 20 more rows
…
